Forecasting San Diego Power Consumption
…
Categorical EDA

Category Count Tables - Bar plots were too messy since we have so
many categories

SD %>% group_by(HourlyPresentWeatherType) %>% tally() %>% arrange(desc(n))

## # A tibble: 47 x 2
##    HourlyPresentWeatherType     n
##    <fct>                    <int>
##  1 ""                       34730
##  2 "BR:1 ||"                 2299
##  3 "-RA:02 |RA |RA"           769
##  4 "HZ:7 |FU |HZ"             492
##  5 "FG:2 |FG |"               395
##  6 "-RA:02 BR:1 |RA |RA"      343
##  7 "RA:02 |RA |RA"            104
##  8 "RA:02 BR:1 |RA |RA"        92
##  9 "-DZ:01 |DZ |DZ"            59
## 10 "+RA:02 BR:1 |RA |RA"       59
## # ... with 37 more rows

SD %>% group_by(HourlySkyConditions) %>% tally() %>% arrange(desc(n))

## # A tibble: 8,143 x 2
##    HourlySkyConditions     n
##    <fct>               <int>
##  1 CLR:00               3875
##  2 FEW:02 250           1513
##  3 SCT:04 250            624
##  4 FEW:02 10             519
##  5 BKN:07 250            487
##  6 OVC:08 15             465
##  7 OVC:08 14             446
##  8 FEW:02 15             378
##  9 OVC:08 10             377
## 10 OVC:08 13             375
## # ... with 8,133 more rows
…
